{
  "data": [
    {
      "id": 1,
      "avatar": "http://rahmatzulfikri.xyz/images/avatar.jpg",
      "name": "Rahmat Zulfikri",
      "email": "me@rahmatzulfikri.xyz",
      "github": "github.com/RZulfikri",
      "like": 10 
    },
    {
      "id": 1,
      "avatar": "http://rahmatzulfikri.xyz/images/avatar.jpg",
      "name": "Rahmat Zulfikri",
      "email": "me@rahmatzulfikri.xyz",
      "github": "github.com/RZulfikri",
      "like": 10 
    },
    {
      "id": 2,
      "avatar": "http://rahmatzulfikri.xyz/images/avatar.jpg",
      "name": "Rahmat Zulfikri",
      "email": "me@rahmatzulfikri.xyz",
      "github": "github.com/RZulfikri",
      "like": 10 
    },
    {
      "id": 3,
      "avatar": "http://rahmatzulfikri.xyz/images/avatar.jpg",
      "name": "Rahmat Zulfikri",
      "email": "me@rahmatzulfikri.xyz",
      "github": "github.com/RZulfikri",
      "like": 10 
    },
    {
      "id": 4,
      "avatar": "http://rahmatzulfikri.xyz/images/avatar.jpg",
      "name": "Rahmat Zulfikri",
      "email": "me@rahmatzulfikri.xyz",
      "github": "github.com/RZulfikri",
      "like": 10 
    },
    {
      "id": 5,
      "avatar": "http://rahmatzulfikri.xyz/images/avatar.jpg",
      "name": "Rahmat Zulfikri",
      "email": "me@rahmatzulfikri.xyz",
      "github": "github.com/RZulfikri",
      "like": 10 
    },
    {
      "id": 6,
      "avatar": "http://rahmatzulfikri.xyz/images/avatar.jpg",
      "name": "Rahmat Zulfikri",
      "email": "me@rahmatzulfikri.xyz",
      "github": "github.com/RZulfikri",
      "like": 10 
    },
    {
      "id": 7,
      "avatar": "http://rahmatzulfikri.xyz/images/avatar.jpg",
      "name": "Rahmat Zulfikri",
      "email": "me@rahmatzulfikri.xyz",
      "github": "github.com/RZulfikri",
      "like": 10 
    },
    {
      "id": 8,
      "avatar": "http://rahmatzulfikri.xyz/images/avatar.jpg",
      "name": "Rahmat Zulfikri",
      "email": "me@rahmatzulfikri.xyz",
      "github": "github.com/RZulfikri",
      "like": 10 
    },
    {
      "id": 9,
      "avatar": "http://rahmatzulfikri.xyz/images/avatar.jpg",
      "name": "Rahmat Zulfikri",
      "email": "me@rahmatzulfikri.xyz",
      "github": "github.com/RZulfikri",
      "like": 10 
    }
  ],
  "meta": {
    "current_page": 1,
    "next_page": 2,
    "prev_page": null,
    "total_pages": 2,
    "total_count": 20
  }
}