{
  "data": [
    {
      "id": 10,
      "avatar": "http://rahmatzulfikri.xyz/images/avatar.jpg",
      "name": "Rahmat Zulfikri",
      "email": "me@rahmatzulfikri.xyz",
      "github": "github.com/RZulfikri",
      "like": 10 
    },
    {
      "id": 11,
      "avatar": "http://rahmatzulfikri.xyz/images/avatar.jpg",
      "name": "Rahmat Zulfikri",
      "email": "me@rahmatzulfikri.xyz",
      "github": "github.com/RZulfikri",
      "like": 10 
    },
    {
      "id": 12,
      "avatar": "http://rahmatzulfikri.xyz/images/avatar.jpg",
      "name": "Rahmat Zulfikri",
      "email": "me@rahmatzulfikri.xyz",
      "github": "github.com/RZulfikri",
      "like": 10 
    },
    {
      "id": 13,
      "avatar": "http://rahmatzulfikri.xyz/images/avatar.jpg",
      "name": "Rahmat Zulfikri",
      "email": "me@rahmatzulfikri.xyz",
      "github": "github.com/RZulfikri",
      "like": 10 
    },
    {
      "id": 14,
      "avatar": "http://rahmatzulfikri.xyz/images/avatar.jpg",
      "name": "Rahmat Zulfikri",
      "email": "me@rahmatzulfikri.xyz",
      "github": "github.com/RZulfikri",
      "like": 10 
    },
    {
      "id": 15,
      "avatar": "http://rahmatzulfikri.xyz/images/avatar.jpg",
      "name": "Rahmat Zulfikri",
      "email": "me@rahmatzulfikri.xyz",
      "github": "github.com/RZulfikri",
      "like": 10 
    },
    {
      "id": 16,
      "avatar": "http://rahmatzulfikri.xyz/images/avatar.jpg",
      "name": "Rahmat Zulfikri",
      "email": "me@rahmatzulfikri.xyz",
      "github": "github.com/RZulfikri",
      "like": 10 
    },
    {
      "id": 17,
      "avatar": "http://rahmatzulfikri.xyz/images/avatar.jpg",
      "name": "Rahmat Zulfikri",
      "email": "me@rahmatzulfikri.xyz",
      "github": "github.com/RZulfikri",
      "like": 10 
    },
    {
      "id": 18,
      "avatar": "http://rahmatzulfikri.xyz/images/avatar.jpg",
      "name": "Rahmat Zulfikri",
      "email": "me@rahmatzulfikri.xyz",
      "github": "github.com/RZulfikri",
      "like": 10 
    },
    {
      "id": 19,
      "avatar": "http://rahmatzulfikri.xyz/images/avatar.jpg",
      "name": "Rahmat Zulfikri",
      "email": "me@rahmatzulfikri.xyz",
      "github": "github.com/RZulfikri",
      "like": 10 
    }
  ],
  "meta": {
    "current_page": 2,
    "next_page": null,
    "prev_page": 1,
    "total_pages": 2,
    "total_count": 20
  }
}